{
  "sections": {
    "main": {
      "type": "main-search",
      "settings": {
        "image_ratio": "portrait",
        "show_secondary_image": false,
        "enable_image_padding": false,
        "show_vendor": false,
        "article_show_date": true,
        "article_show_author": false
      }
    }
  },
  "order": [
    "main"
  ]
}